{
  "warnings": [
    {
      "file": "/Users/simonmcloughlin/Documents/projects/camlKit/Pods/Sodium/Sodium/Sodium.swift",
      "line": 11,
      "symbol": "Sodium",
      "symbol_kind": "source.lang.swift.decl.extension",
      "warning": "undocumented"
    },
    {
      "file": "/Users/simonmcloughlin/Documents/projects/camlKit/Source/Clients/TezosNodeClient.swift",
      "line": 11,
      "symbol": "TezosNodeClient",
      "symbol_kind": "source.lang.swift.decl.class",
      "warning": "undocumented"
    },
    {
      "file": "/Users/simonmcloughlin/Documents/projects/camlKit/Source/Clients/TezosNodeClient.swift",
      "line": 58,
      "symbol": "TezosNodeClient.getBalance(forTokens:)",
      "symbol_kind": "source.lang.swift.decl.function.method.instance",
      "warning": "undocumented"
    },
    {
      "file": "/Users/simonmcloughlin/Documents/projects/camlKit/Source/Clients/TezosNodeClient.swift",
      "line": 68,
      "symbol": "TezosNodeClient.getDelegate(forWallet:)",
      "symbol_kind": "source.lang.swift.decl.function.method.instance",
      "warning": "undocumented"
    },
    {
      "file": "/Users/simonmcloughlin/Documents/projects/camlKit/Source/Clients/TezosNodeClient.swift",
      "line": 72,
      "symbol": "TezosNodeClient.setDelegate(forWallet:)",
      "symbol_kind": "source.lang.swift.decl.function.method.instance",
      "warning": "undocumented"
    },
    {
      "file": "/Users/simonmcloughlin/Documents/projects/camlKit/Source/Clients/TezosNodeClient.swift",
      "line": 79,
      "symbol": "TezosNodeClient.estimate(operations:)",
      "symbol_kind": "source.lang.swift.decl.function.method.instance",
      "warning": "undocumented"
    },
    {
      "file": "/Users/simonmcloughlin/Documents/projects/camlKit/Source/Clients/TezosNodeClient.swift",
      "line": 89,
      "symbol": "TezosNodeClient.send(operations:)",
      "symbol_kind": "source.lang.swift.decl.function.method.instance",
      "warning": "undocumented"
    },
    {
      "file": "/Users/simonmcloughlin/Documents/projects/camlKit/Source/Clients/tzktClient.swift",
      "line": 11,
      "symbol": "tzktClient",
      "symbol_kind": "source.lang.swift.decl.class",
      "warning": "undocumented"
    },
    {
      "file": "/Users/simonmcloughlin/Documents/projects/camlKit/Source/Crypto/Prefix.swift",
      "line": 10,
      "symbol": "Prefix",
      "symbol_kind": "source.lang.swift.decl.enum",
      "warning": "undocumented"
    },
    {
      "file": "/Users/simonmcloughlin/Documents/projects/camlKit/Source/Crypto/Prefix.swift",
      "line": 11,
      "symbol": "Prefix.Watermark",
      "symbol_kind": "source.lang.swift.decl.enum",
      "warning": "undocumented"
    },
    {
      "file": "/Users/simonmcloughlin/Documents/projects/camlKit/Source/Crypto/Prefix.swift",
      "line": 12,
      "symbol": "Prefix.Watermark.operation",
      "symbol_kind": "source.lang.swift.decl.var.static",
      "warning": "undocumented"
    },
    {
      "file": "/Users/simonmcloughlin/Documents/projects/camlKit/Source/Crypto/Prefix.swift",
      "line": 15,
      "symbol": "Prefix.Keys",
      "symbol_kind": "source.lang.swift.decl.enum",
      "warning": "undocumented"
    },
    {
      "file": "/Users/simonmcloughlin/Documents/projects/camlKit/Source/Crypto/Prefix.swift",
      "line": 16,
      "symbol": "Prefix.Keys.Ed25519",
      "symbol_kind": "source.lang.swift.decl.enum",
      "warning": "undocumented"
    },
    {
      "file": "/Users/simonmcloughlin/Documents/projects/camlKit/Source/Crypto/Prefix.swift",
      "line": 17,
      "symbol": "Prefix.Keys.Ed25519.public",
      "symbol_kind": "source.lang.swift.decl.var.static",
      "warning": "undocumented"
    },
    {
      "file": "/Users/simonmcloughlin/Documents/projects/camlKit/Source/Crypto/Prefix.swift",
      "line": 18,
      "symbol": "Prefix.Keys.Ed25519.secret",
      "symbol_kind": "source.lang.swift.decl.var.static",
      "warning": "undocumented"
    },
    {
      "file": "/Users/simonmcloughlin/Documents/projects/camlKit/Source/Crypto/Prefix.swift",
      "line": 19,
      "symbol": "Prefix.Keys.Ed25519.seed",
      "symbol_kind": "source.lang.swift.decl.var.static",
      "warning": "undocumented"
    },
    {
      "file": "/Users/simonmcloughlin/Documents/projects/camlKit/Source/Crypto/Prefix.swift",
      "line": 20,
      "symbol": "Prefix.Keys.Ed25519.signature",
      "symbol_kind": "source.lang.swift.decl.var.static",
      "warning": "undocumented"
    },
    {
      "file": "/Users/simonmcloughlin/Documents/projects/camlKit/Source/Crypto/Prefix.swift",
      "line": 23,
      "symbol": "Prefix.Keys.P256",
      "symbol_kind": "source.lang.swift.decl.enum",
      "warning": "undocumented"
    },
    {
      "file": "/Users/simonmcloughlin/Documents/projects/camlKit/Source/Crypto/Prefix.swift",
      "line": 24,
      "symbol": "Prefix.Keys.P256.secret",
      "symbol_kind": "source.lang.swift.decl.var.static",
      "warning": "undocumented"
    },
    {
      "file": "/Users/simonmcloughlin/Documents/projects/camlKit/Source/Crypto/Prefix.swift",
      "line": 25,
      "symbol": "Prefix.Keys.P256.public",
      "symbol_kind": "source.lang.swift.decl.var.static",
      "warning": "undocumented"
    },
    {
      "file": "/Users/simonmcloughlin/Documents/projects/camlKit/Source/Crypto/Prefix.swift",
      "line": 26,
      "symbol": "Prefix.Keys.P256.signature",
      "symbol_kind": "source.lang.swift.decl.var.static",
      "warning": "undocumented"
    },
    {
      "file": "/Users/simonmcloughlin/Documents/projects/camlKit/Source/Crypto/Prefix.swift",
      "line": 29,
      "symbol": "Prefix.Keys.Secp256k1",
      "symbol_kind": "source.lang.swift.decl.enum",
      "warning": "undocumented"
    },
    {
      "file": "/Users/simonmcloughlin/Documents/projects/camlKit/Source/Crypto/Prefix.swift",
      "line": 30,
      "symbol": "Prefix.Keys.Secp256k1.public",
      "symbol_kind": "source.lang.swift.decl.var.static",
      "warning": "undocumented"
    },
    {
      "file": "/Users/simonmcloughlin/Documents/projects/camlKit/Source/Crypto/Prefix.swift",
      "line": 31,
      "symbol": "Prefix.Keys.Secp256k1.secret",
      "symbol_kind": "source.lang.swift.decl.var.static",
      "warning": "undocumented"
    },
    {
      "file": "/Users/simonmcloughlin/Documents/projects/camlKit/Source/Crypto/Prefix.swift",
      "line": 32,
      "symbol": "Prefix.Keys.Secp256k1.signature",
      "symbol_kind": "source.lang.swift.decl.var.static",
      "warning": "undocumented"
    },
    {
      "file": "/Users/simonmcloughlin/Documents/projects/camlKit/Source/Crypto/Prefix.swift",
      "line": 36,
      "symbol": "Prefix.Address",
      "symbol_kind": "source.lang.swift.decl.enum",
      "warning": "undocumented"
    },
    {
      "file": "/Users/simonmcloughlin/Documents/projects/camlKit/Source/Crypto/Prefix.swift",
      "line": 37,
      "symbol": "Prefix.Address.tz1",
      "symbol_kind": "source.lang.swift.decl.var.static",
      "warning": "undocumented"
    },
    {
      "file": "/Users/simonmcloughlin/Documents/projects/camlKit/Source/Crypto/Prefix.swift",
      "line": 38,
      "symbol": "Prefix.Address.tz2",
      "symbol_kind": "source.lang.swift.decl.var.static",
      "warning": "undocumented"
    },
    {
      "file": "/Users/simonmcloughlin/Documents/projects/camlKit/Source/Crypto/Prefix.swift",
      "line": 39,
      "symbol": "Prefix.Address.tz3",
      "symbol_kind": "source.lang.swift.decl.var.static",
      "warning": "undocumented"
    },
    {
      "file": "/Users/simonmcloughlin/Documents/projects/camlKit/Source/Crypto/PublicKey.swift",
      "line": 13,
      "symbol": "EllipticalCurve",
      "symbol_kind": "source.lang.swift.decl.enum",
      "warning": "undocumented"
    },
    {
      "file": "/Users/simonmcloughlin/Documents/projects/camlKit/Source/Crypto/PublicKey.swift",
      "line": 14,
      "symbol": "EllipticalCurve.ed25519",
      "symbol_kind": "source.lang.swift.decl.enumelement",
      "warning": "undocumented"
    },
    {
      "file": "/Users/simonmcloughlin/Documents/projects/camlKit/Source/Crypto/PublicKey.swift",
      "line": 15,
      "symbol": "EllipticalCurve.secp256k1",
      "symbol_kind": "source.lang.swift.decl.enumelement",
      "warning": "undocumented"
    },
    {
      "file": "/Users/simonmcloughlin/Documents/projects/camlKit/Source/Crypto/PublicKey.swift",
      "line": 16,
      "symbol": "EllipticalCurve.p256",
      "symbol_kind": "source.lang.swift.decl.enumelement",
      "warning": "undocumented"
    },
    {
      "file": "/Users/simonmcloughlin/Documents/projects/camlKit/Source/Crypto/PublicKey.swift",
      "line": 19,
      "symbol": "PublicKey",
      "symbol_kind": "source.lang.swift.decl.struct",
      "warning": "undocumented"
    },
    {
      "file": "/Users/simonmcloughlin/Documents/projects/camlKit/Source/Crypto/PublicKey.swift",
      "line": 21,
      "symbol": "PublicKey.bytes",
      "symbol_kind": "source.lang.swift.decl.var.instance",
      "warning": "undocumented"
    },
    {
      "file": "/Users/simonmcloughlin/Documents/projects/camlKit/Source/Crypto/PublicKey.swift",
      "line": 23,
      "symbol": "PublicKey.signingCurve",
      "symbol_kind": "source.lang.swift.decl.var.instance",
      "warning": "undocumented"
    },
    {
      "file": "/Users/simonmcloughlin/Documents/projects/camlKit/Source/Crypto/PublicKey.swift",
      "line": 25,
      "symbol": "PublicKey.base58CheckRepresentation",
      "symbol_kind": "source.lang.swift.decl.var.instance",
      "warning": "undocumented"
    },
    {
      "file": "/Users/simonmcloughlin/Documents/projects/camlKit/Source/Crypto/PublicKey.swift",
      "line": 38,
      "symbol": "PublicKey.publicKeyHash",
      "symbol_kind": "source.lang.swift.decl.var.instance",
      "warning": "undocumented"
    },
    {
      "file": "/Users/simonmcloughlin/Documents/projects/camlKit/Source/Crypto/PublicKey.swift",
      "line": 172,
      "symbol": "PublicKey",
      "symbol_kind": "source.lang.swift.decl.extension",
      "warning": "undocumented"
    },
    {
      "file": "/Users/simonmcloughlin/Documents/projects/camlKit/Source/Crypto/PublicKey.swift",
      "line": 178,
      "symbol": "PublicKey",
      "symbol_kind": "source.lang.swift.decl.extension",
      "warning": "undocumented"
    },
    {
      "file": "/Users/simonmcloughlin/Documents/projects/camlKit/Source/Crypto/SecretKey.swift",
      "line": 14,
      "symbol": "SecretKey",
      "symbol_kind": "source.lang.swift.decl.struct",
      "warning": "undocumented"
    },
    {
      "file": "/Users/simonmcloughlin/Documents/projects/camlKit/Source/Crypto/SecretKey.swift",
      "line": 16,
      "symbol": "SecretKey.bytes",
      "symbol_kind": "source.lang.swift.decl.var.instance",
      "warning": "undocumented"
    },
    {
      "file": "/Users/simonmcloughlin/Documents/projects/camlKit/Source/Crypto/SecretKey.swift",
      "line": 18,
      "symbol": "SecretKey.signingCurve",
      "symbol_kind": "source.lang.swift.decl.var.instance",
      "warning": "undocumented"
    },
    {
      "file": "/Users/simonmcloughlin/Documents/projects/camlKit/Source/Crypto/SecretKey.swift",
      "line": 20,
      "symbol": "SecretKey.base58CheckRepresentation",
      "symbol_kind": "source.lang.swift.decl.var.instance",
      "warning": "undocumented"
    },
    {
      "file": "/Users/simonmcloughlin/Documents/projects/camlKit/Source/Crypto/SecretKey.swift",
      "line": 164,
      "symbol": "SecretKey",
      "symbol_kind": "source.lang.swift.decl.extension",
      "warning": "undocumented"
    },
    {
      "file": "/Users/simonmcloughlin/Documents/projects/camlKit/Source/Crypto/SecretKey.swift",
      "line": 171,
      "symbol": "SecretKey",
      "symbol_kind": "source.lang.swift.decl.extension",
      "warning": "undocumented"
    },
    {
      "file": "/Users/simonmcloughlin/Documents/projects/camlKit/Source/Crypto/Sodium+TezosCrypto.swift",
      "line": 13,
      "symbol": "Sodium.shared",
      "symbol_kind": "source.lang.swift.decl.var.static",
      "warning": "undocumented"
    },
    {
      "file": "/Users/simonmcloughlin/Documents/projects/camlKit/Source/Factories/MichelsonFactory.swift",
      "line": 11,
      "symbol": "MichelsonFactory",
      "symbol_kind": "source.lang.swift.decl.class",
      "warning": "undocumented"
    },
    {
      "file": "/Users/simonmcloughlin/Documents/projects/camlKit/Source/Factories/OperationFactory.swift",
      "line": 11,
      "symbol": "OperationFactory",
      "symbol_kind": "source.lang.swift.decl.class",
      "warning": "undocumented"
    },
    {
      "file": "/Users/simonmcloughlin/Documents/projects/camlKit/Source/Models/TezosNodeClientConfig.swift",
      "line": 11,
      "symbol": "TezosNodeClientConfig",
      "symbol_kind": "source.lang.swift.decl.struct",
      "warning": "undocumented"
    },
    {
      "file": "/Users/simonmcloughlin/Documents/projects/camlKit/Source/Models/TezosNodeClientConfig.swift",
      "line": 17,
      "symbol": "TezosNodeClientConfig.NetworkType.mainnet",
      "symbol_kind": "source.lang.swift.decl.enumelement",
      "warning": "undocumented"
    },
    {
      "file": "/Users/simonmcloughlin/Documents/projects/camlKit/Source/Models/TezosNodeClientConfig.swift",
      "line": 18,
      "symbol": "TezosNodeClientConfig.NetworkType.testnet",
      "symbol_kind": "source.lang.swift.decl.enumelement",
      "warning": "undocumented"
    },
    {
      "file": "/Users/simonmcloughlin/Documents/projects/camlKit/Source/Models/Token.swift",
      "line": 13,
      "symbol": "Token",
      "symbol_kind": "source.lang.swift.decl.class",
      "warning": "undocumented"
    },
    {
      "file": "/Users/simonmcloughlin/Documents/projects/camlKit/Source/Models/Token.swift",
      "line": 15,
      "symbol": "Token.name",
      "symbol_kind": "source.lang.swift.decl.var.instance",
      "warning": "undocumented"
    },
    {
      "file": "/Users/simonmcloughlin/Documents/projects/camlKit/Source/Models/Token.swift",
      "line": 16,
      "symbol": "Token.symbol",
      "symbol_kind": "source.lang.swift.decl.var.instance",
      "warning": "undocumented"
    },
    {
      "file": "/Users/simonmcloughlin/Documents/projects/camlKit/Source/Models/Token.swift",
      "line": 17,
      "symbol": "Token.decimalPlaces",
      "symbol_kind": "source.lang.swift.decl.var.instance",
      "warning": "undocumented"
    },
    {
      "file": "/Users/simonmcloughlin/Documents/projects/camlKit/Source/Models/Token.swift",
      "line": 124,
      "symbol": "Token.xtz()",
      "symbol_kind": "source.lang.swift.decl.function.method.static",
      "warning": "undocumented"
    },
    {
      "file": "/Users/simonmcloughlin/Documents/projects/camlKit/Source/Models/Token.swift",
      "line": 248,
      "symbol": "Token",
      "symbol_kind": "source.lang.swift.decl.extension",
      "warning": "undocumented"
    },
    {
      "file": "/Users/simonmcloughlin/Documents/projects/camlKit/Source/Models/Token.swift",
      "line": 257,
      "symbol": "Token",
      "symbol_kind": "source.lang.swift.decl.extension",
      "warning": "undocumented"
    },
    {
      "file": "/Users/simonmcloughlin/Documents/projects/camlKit/Source/Models/Token.swift",
      "line": 264,
      "symbol": "Token",
      "symbol_kind": "source.lang.swift.decl.extension",
      "warning": "undocumented"
    },
    {
      "file": "/Users/simonmcloughlin/Documents/projects/camlKit/Source/Models/Wallet.swift",
      "line": 38,
      "symbol": "Wallet.MnemonicPhraseLength.twelve",
      "symbol_kind": "source.lang.swift.decl.enumelement",
      "warning": "undocumented"
    },
    {
      "file": "/Users/simonmcloughlin/Documents/projects/camlKit/Source/Models/Wallet.swift",
      "line": 39,
      "symbol": "Wallet.MnemonicPhraseLength.fifteen",
      "symbol_kind": "source.lang.swift.decl.enumelement",
      "warning": "undocumented"
    },
    {
      "file": "/Users/simonmcloughlin/Documents/projects/camlKit/Source/Models/Wallet.swift",
      "line": 40,
      "symbol": "Wallet.MnemonicPhraseLength.eighteen",
      "symbol_kind": "source.lang.swift.decl.enumelement",
      "warning": "undocumented"
    },
    {
      "file": "/Users/simonmcloughlin/Documents/projects/camlKit/Source/Models/Wallet.swift",
      "line": 41,
      "symbol": "Wallet.MnemonicPhraseLength.twentyOne",
      "symbol_kind": "source.lang.swift.decl.enumelement",
      "warning": "undocumented"
    },
    {
      "file": "/Users/simonmcloughlin/Documents/projects/camlKit/Source/Models/Wallet.swift",
      "line": 42,
      "symbol": "Wallet.MnemonicPhraseLength.twentyFour",
      "symbol_kind": "source.lang.swift.decl.enumelement",
      "warning": "undocumented"
    },
    {
      "file": "/Users/simonmcloughlin/Documents/projects/camlKit/Source/Models/Wallet.swift",
      "line": 61,
      "symbol": "Wallet.init(publicKey:secretKey:address:mnemonic:)",
      "symbol_kind": "source.lang.swift.decl.function.method.instance",
      "warning": "undocumented"
    },
    {
      "file": "/Users/simonmcloughlin/Documents/projects/camlKit/Source/Services/FeeEstimatorService.swift",
      "line": 11,
      "symbol": "FeeEstimatorService",
      "symbol_kind": "source.lang.swift.decl.class",
      "warning": "undocumented"
    },
    {
      "file": "/Users/simonmcloughlin/Documents/projects/camlKit/Source/Services/NetworkService.swift",
      "line": 12,
      "symbol": "NetworkService",
      "symbol_kind": "source.lang.swift.decl.class",
      "warning": "undocumented"
    },
    {
      "file": "/Users/simonmcloughlin/Documents/projects/camlKit/Source/Services/NetworkService.swift",
      "line": 18,
      "symbol": "NetworkService.NetworkError.parse(error:)",
      "symbol_kind": "source.lang.swift.decl.enumelement",
      "warning": "undocumented"
    },
    {
      "file": "/Users/simonmcloughlin/Documents/projects/camlKit/Source/Services/NetworkService.swift",
      "line": 19,
      "symbol": "NetworkService.NetworkError.unknown",
      "symbol_kind": "source.lang.swift.decl.enumelement",
      "warning": "undocumented"
    }
  ],
  "source_directory": "/Users/simonmcloughlin/Documents/projects/camlKit"
}